<?xml version="1.0" encoding="utf-8"?>
<!-- Generator: Adobe Illustrator 23.0.2, SVG Export Plug-In . SVG Version: 6.00 Build 0)  -->
<svg version="1.1" id="Layer_1" xmlns="http://www.w3.org/2000/svg" xmlns:xlink="http://www.w3.org/1999/xlink" x="0px" y="0px"
	 viewBox="0 0 341.4 75" style="enable-background:new 0 0 341.4 75;" xml:space="preserve">
<style type="text/css">
	.st0{fill:#BBBBBB;}
</style>
<path class="st0" d="M26.2,55.5l7.9-36.1h10l7.8,36.1h-8.4l-1.1-6.9h-6.6l-1.1,6.9C34.7,55.5,26.2,55.5,26.2,55.5z M36.6,42.1h4.9
	l-2.4-15.8L36.6,42.1z M54.3,19.4h8.5V42c0,3.4,0.2,5.5,0.6,6.4s1.2,1.2,2.3,1.2s1.9-0.4,2.3-1.3s0.6-2.9,0.6-6.3V19.4H77v23
	c0,2.6-0.1,4.6-0.3,5.8s-0.6,2.4-1.1,3.4c-0.9,1.6-2.1,2.8-3.7,3.6s-3.7,1.1-6.4,1.1c-2.4,0-4.4-0.4-5.9-1.1s-2.7-1.8-3.6-3.4
	c-0.6-1.1-1.1-2.5-1.3-4.3s-0.4-4.7-0.4-8.8V19.4z M83,55.5V19.4h9.5c3.1,0,5.4,0.1,6.8,0.4s2.5,0.8,3.4,1.5c1,0.8,1.8,1.9,2.3,3.1
	s0.8,2.7,0.8,4.4c0,2.1-0.4,3.8-1.1,5.2s-1.9,2.6-3.4,3.5c2.6,1.2,4,3.9,4.1,8.2v2.1c0.1,4.1,0.7,6.6,2,7.6h-9.9L97,53l-0.2-2.6
	v-2.1v-1.6c0-2.2-0.3-3.7-0.9-4.5S94.3,41,92.8,41h-1.7v14.4L83,55.5L83,55.5z M91.3,34.5h1.1c1.8,0,3-0.4,3.7-1.1s1.1-1.9,1.1-3.6
	c0-1.5-0.4-2.6-1.1-3.3s-2-1-3.7-1h-1.1V34.5z M110.4,37.5c0-4.3,0.2-7.5,0.5-9.5s0.8-3.6,1.5-4.7c1-1.6,2.4-2.8,4.1-3.6
	s3.7-1.2,6-1.2c2.4,0,4.4,0.4,6,1.2c1.6,0.8,3,2,4,3.6c0.8,1.1,1.3,2.7,1.6,4.7s0.5,5.2,0.5,9.5s-0.2,7.5-0.5,9.5s-0.8,3.6-1.6,4.7
	c-1,1.6-2.4,2.8-4,3.5s-3.7,1.2-6,1.2s-4.4-0.4-6-1.2s-3-2-4.1-3.5c-0.7-1.1-1.2-2.7-1.5-4.7S110.4,41.8,110.4,37.5z M125.9,40.7
	v-6.5c0-4-0.3-6.5-0.8-7.4s-1.4-1.4-2.8-1.4c-1.3,0-2.2,0.5-2.7,1.5s-0.8,3.4-0.8,7.4v6.5c0,3.9,0.3,6.4,0.8,7.3s1.4,1.5,2.7,1.5
	c1.3,0,2.2-0.5,2.7-1.5S125.9,44.7,125.9,40.7z M139.7,55.5V19.4h9.5c3.1,0,5.4,0.1,6.8,0.4s2.5,0.8,3.4,1.5c1,0.8,1.8,1.9,2.3,3.1
	s0.8,2.7,0.8,4.4c0,2.1-0.4,3.8-1.1,5.2s-1.9,2.6-3.4,3.5c2.6,1.2,4,3.9,4.1,8.2v2.1c0.1,4.1,0.7,6.6,2,7.6h-9.9l-0.5-2.4l-0.2-2.6
	v-2.1v-1.6c0-2.2-0.3-3.7-0.9-4.5S151,41,149.5,41H148v14.4L139.7,55.5L139.7,55.5z M148,34.5h1.1c1.8,0,3-0.4,3.7-1.1
	s1.1-1.9,1.1-3.6c0-1.5-0.4-2.6-1.1-3.3s-2-1-3.7-1H148V34.5z M165.2,55.5l7.9-36.1h10l7.8,36.1h-8.4l-1.1-6.9h-6.6l-1.1,6.9H165.2
	L165.2,55.5z M175.7,42.1h4.9l-2.4-15.8L175.7,42.1z M193.3,45.6v-7.2h14.6v7.2H193.3z M227.7,41.6h8.3v1.8c0,4.4-1,7.7-2.9,9.8
	s-4.9,3.2-8.9,3.2c-2.3,0-4.4-0.4-6-1.2s-3-2-4.1-3.5c-0.7-1.1-1.2-2.7-1.5-4.7s-0.5-5.2-0.5-9.5s0.2-7.5,0.5-9.5s0.8-3.6,1.5-4.7
	c1-1.6,2.4-2.7,4-3.5s3.6-1.2,5.9-1.2c4,0,6.9,1.1,8.9,3.3s3,5.5,3,9.9v0.4h-8.2c0-2.5-0.3-4.2-0.8-5.2s-1.4-1.5-2.7-1.5
	c-1.4,0-2.3,0.6-2.8,1.8s-0.8,4.4-0.8,9.6v0.7c0,5.6,0.3,9,0.8,10.3s1.4,1.9,2.8,1.9c1.3,0,2.2-0.5,2.7-1.4s0.8-2.6,0.8-5.1
	C227.7,43.3,227.7,41.6,227.7,41.6z M241.5,55.5V19.4h8.4V33h6.8V19.4h8.3v36.1h-8.3v-15h-6.8v15H241.5L241.5,55.5z M268.2,55.5
	l7.9-36.1h10l7.8,36.1h-8.4l-1.1-6.9h-6.6l-1.1,6.9H268.2L268.2,55.5z M278.7,42.1h4.9l-2.4-15.8L278.7,42.1z M299.9,55.5v-29h-6.8
	v-7h22.3v7h-7.1v29.1L299.9,55.5L299.9,55.5z"/>
</svg>
