<?xml version="1.0" encoding="utf-8"?>
<!-- Generator: Adobe Illustrator 23.0.2, SVG Export Plug-In . SVG Version: 6.00 Build 0)  -->
<svg version="1.1" id="Layer_1" xmlns="http://www.w3.org/2000/svg" xmlns:xlink="http://www.w3.org/1999/xlink" x="0px" y="0px"
	 viewBox="0 0 240.5 75" style="enable-background:new 0 0 240.5 75;" xml:space="preserve">
<style type="text/css">
	.st0{fill:#BBBBBB;}
</style>
<path class="st0" d="M31.1,55.5l-7.2-36h8.5l2,17.5l0.5,4.8l0.3,3.5c0-1.5,0.2-3,0.4-4.3l0.5-4l2.7-17.6h8.5L49.9,37
	c0.4,2.8,0.7,5.6,1,8.4l0.4-5l0.3-3.2l2-17.7H62l-7.2,36.1h-9.1l-2-14.9c-0.3-2.9-0.6-5.8-0.7-8.7c-0.2,2.9-0.5,5.7-0.8,8.6l-1.9,15
	L31.1,55.5L31.1,55.5z M65,55.5v-36h19.6v7H73.3V33h10.4v7.2H73.3v8h11.3v7.3H65L65,55.5z M87.2,55.5l7.9-36h10l7.8,36h-8.4l-1-6.9
	h-6.7l-1,7L87.2,55.5L87.2,55.5z M97.6,42.1h4.9L100,26.4L97.6,42.1L97.6,42.1z M118.9,55.5v-29h-6.8v-7h22.4v7h-7.1v29H118.9z
	 M137.9,55.5v-36h8.4V33h6.8V19.4h8.3v36.1H153v-15h-6.8v15H138H137.9z M167.2,55.5v-36H187v7h-11.3V33H186v7.2h-10.4v8H187v7.3
	h-19.7H167.2z M192,55.5v-36h9.6c3,0,5.4,0,6.8,0.4s2.5,0.8,3.4,1.5c1,0.8,1.8,1.9,2.3,3s0.7,2.8,0.7,4.5c0,2-0.3,3.8-1,5.2
	s-2,2.6-3.4,3.5c2.6,1.2,4,3.9,4,8.2V46l0.1,2c0.1,4,0.8,6.5,2,7.6h-9.8c-0.5-1.6-0.7-3.3-0.6-5v-2.1v-1.7c0-2.2-0.2-3.7-0.8-4.5
	s-1.6-1.2-3.1-1.2h-1.8v14.4H192L192,55.5z M200.4,34.5h1.1c1.7,0,3-0.3,3.7-1s1-2,1-3.6c0-1.5-0.3-2.6-1-3.3s-2-1-3.7-1h-1.1V34.5z
	"/>
</svg>
